{
  "data": [{
          "email": "usuario1@correo.com",
          "password": "123456"
           },
           {
             "tokenSession":"sdaskjbsdkhjvkasdasdsjdhvb"
           }
          
          ]
}