{
    "data": [{
            "_id": 1,
            "name": "Getting Over",
            "album": "One Love",
            "cover": "https://jenesaispop.com/wp-content/uploads/2009/09/guetta_onelove.jpg",
            "artist": {
                "name": "David Guetta",
                "nickname": "David Guetta",
                "nationality": "FR"
            },
            "duration": {
                "start": 0,
                "end": 333
            },
            "url": "https://mus7.about-in.tk/skm/f3d92cca-6823-4dd2-b7fe-ca9689315d32.mp3"
        },
        {
            "_id": 2,
            "name": "Snow Tha Product || BZRP Music Sessions #39",
            "album": "BZRP Music Sessions",
            "cover": "https://is5-ssl.mzstatic.com/image/thumb/Features125/v4/9c/b9/d0/9cb9d017-fcf6-28c6-81d0-e9ac5b0f359e/pr_source.png/800x800cc.jpg",
            "artist": {
                "name": "Snow",
                "nickname": "Snow",
                "nationality": "US"
            },
            "duration": {
                "start": 0,
                "end": 333
            },
            "url": "https://mus6.about-in.tk/skm/30d75918-857f-4894-a7c4-7a53c4c13b04.mp3"
        },
        {
            "_id": 3,
            "name": "Calypso (Original Mix)",
            "album": "Round Table Knights",
            "cover": "https://cdns-images.dzcdn.net/images/cover/1db3f8f185e68f26feaf0b9d72ff1645/350x350.jpg",
            "artist": {
                "name": "Round Table Knights",
                "nickname": "Round Table Knights",
                "nationality": "US"
            },
            "duration": {
                "start": 0,
                "end": 333
            },
            "url": "https://mus3.about-in.tk/skm/b3091ee2-eb8f-46ce-87b8-7d3adca28347.mp3"
        },
        {
            "_id": 4,
            "name": "Bad Habits",
            "album": "Ed Sheeran",
            "cover": "https://www.lahiguera.net/musicalia/artistas/ed_sheeran/disco/11372/tema/25301/ed_sheeran_bad_habits-portada.jpg",
            "artist": {
                "name": "Ed Sheeran",
                "nickname": "Ed Sheeran",
                "nationality": "UK"
            },
            "duration": {
                "start": 0,
                "end": 333
            },
            "url": "https://mus2.about-in.tk/skm/96b380ce-6c81-46dd-a864-6b64d8f03392.mp3"
        },
        {
            "_id": 5,
            "name": "BEBE (Official Video)",
            "album": "Giolì & Assia",
            "cover": "https://i.scdn.co/image/ab67616d0000b27345ca41b0d2352242c7c9d4bc",
            "artist": {
                "name": "Giolì & Assia",
                "nickname": "Giolì & Assia",
                "nationality": "IT"
            },
            "duration": {
                "start": 0,
                "end": 333
            },
            "url": "https://mus4.mimusicacristiana.net/mp3/a2375d71-39cc-46b5-a80a-917b53b1ef69.mp3"
        },
        {
            "_id": 6,
            "name": "T.N.T. (Live At River Plate, December 2009)",
            "album": "AC/DC",
            "cover": "https://cdns-images.dzcdn.net/images/cover/ba5eaf2f3a49768164d0728b7ba64372/500x500.jpg",
            "artist": {
                "name": "AC/DC",
                "nickname": "AC/DC",
                "nationality": "US"
            },
            "duration": {
                "start": 0,
                "end": 333
            },
            "url": "https://mus1.about-in.tk/skm/023ba065-d212-438d-abdc-5bd243c1e72d.mp3"
        },
        {
            "_id": 7,
            "name": "50 Cent - Candy Shop (feat. Olivia)",
            "album": "50 Cent",
            "cover": "https://i.scdn.co/image/ab67616d0000b27391f7222996c531b981e7bb3d",
            "artist": {
                "name": "50 Cent",
                "nickname": "50 Cent",
                "nationality": "US"
            },
            "duration": {
                "start": 0,
                "end": 333
            },
            "url": "https://mus6.about-in.tk/skm/b365cfb7-2214-4132-869a-c1be2a406687.mp3"
        },
        {
            "_id": 8,
            "name": "Bésame💋",
            "album": "Valentino Ft MTZ Manuel Turizo (Video Oficial)",
            "cover": "https://i1.sndcdn.com/artworks-000247627460-1hqnjr-t500x500.jpg",
            "artist": {
                "name": "Valentino",
                "nickname": "Valentino",
                "nationality": "CO"
            },
            "duration": {
                "start": 0,
                "end": 333
            },
            "url": "https://mus8.about-in.tk/skm/24742c4d-40be-4a12-817a-b991a2bddbaf.mp3"
        }
    ]
}